Transform camera trap data to recurrent events data • ctrecurrent
…
## Joining with `by = join_by(survey_id)`

recu |> select(Site, survey_id, t.start, t.stop, event, status, enum)

## # A tibble: 221 × 7
## # Groups:   survey_id [99]
##    Site       survey_id    t.start t.stop event status  enum
##    <chr>      <chr>          <dbl>  <dbl> <dbl>  <dbl> <int>
##  1 2016BE15   2016BE15-3     0     10.8       1      0     1
##  2 2016BE15   2016BE15-3    10.8   30         0      0     2
##  3 2016BE22   2016BE22-6     0      0.344     1      0     1
##  4 2016BE22   2016BE22-6     0.344  0.939     0      0     2
##  5 2016BE22   2016BE22-9     0      5.89      1      0     1
##  6 2016BE22   2016BE22-9     5.89   7.37      0      0     2
##  7 2016BE98   2016BE98-3     0     18.0       1      0     1
##  8 2016BE98   2016BE98-3    18.0   20.8       0      0     2
##  9 2016ROTH23 2016ROTH23-1   0     20.8       1      0     1
## 10 2016ROTH23 2016ROTH23-1  20.8   30         0      0     2
## # ℹ 211 more rows

# Merge covariate information with recurrent events data table
cov = murphy %>%
  select(Site, matrix) %>%
  distinct()
data = left_join(recu, cov)

## Joining with `by = join_by(Site)`

data |> select(Site, survey_id, primary, secondary, t.start, t.stop, event, matrix)

## # A tibble: 221 × 8
## # Groups:   survey_id [99]
##    Site       survey_id    primary secondary t.start t.stop event matrix
##    <chr>      <chr>        <chr>   <chr>       <dbl>  <dbl> <dbl> <chr> 
##  1 2016BE15   2016BE15-3   Deer    Coyote      0     10.8       1 agdev 
##  2 2016BE15   2016BE15-3   Deer    Coyote     10.8   30         0 agdev 
##  3 2016BE22   2016BE22-6   Deer    Coyote      0      0.344     1 agdev 
##  4 2016BE22   2016BE22-6   Deer    Coyote      0.344  0.939     0 agdev 
##  5 2016BE22   2016BE22-9   Deer    Coyote      0      5.89      1 agdev 
##  6 2016BE22   2016BE22-9   Deer    Coyote      5.89   7.37      0 agdev 
##  7 2016BE98   2016BE98-3   Deer    Coyote      0     18.0       1 agdev 
##  8 2016BE98   2016BE98-3   Deer    Coyote     18.0   20.8       0 agdev 
##  9 2016ROTH23 2016ROTH23-1 Deer    Coyote      0     20.8       1 agdev 
## 10 2016ROTH23 2016ROTH23-1 Deer    Coyote     20.8   30         0 agdev 
## # ℹ 211 more rows
…
